User Guide
…
In all cases as much information as possible is decoded, and the data
file headers are preserved as comments in the source.spct objects.

li180.spct

## Object: source_spct [401 x 2]
## Wavelength range 380-780 nm, step 1 nm 
## Label: File: licor-li180-irrad.txt 
## Measured on 2021-03-02 09:24:26 UTC 
## Variables:
##  w.length: Wavelength [nm]
##  s.e.irrad: Spectral energy irradiance [W m-2 nm-1] 
## --
## # A tibble: 401 × 2
##   w.length s.e.irrad
##      <dbl>     <dbl>
## 1      380    0.0275
## 2      381    0.0280
## 3      382    0.0285
## # ℹ 398 more rows
…
licor.spct

## Object: source_spct [601 x 2]
## Wavelength range 300-900 nm, step 1 nm 
## Label: File: licor-li1800-q-irrad.PRN 
## Measured on 0-08-23 14:52:11 UTC 
## Variables:
##  w.length: Wavelength [nm]
##  s.q.irrad: Spectral photon irradiance [mol s-1 m-2 nm-1] 
## --
## # A tibble: 601 × 2
##   w.length s.q.irrad
##      <dbl>     <dbl>
## 1      300  1.52e-10
## 2      301  3.36e-10
## 3      302  2.20e-10
## # ℹ 598 more rows
…
In all cases as much information as possible is decoded, and the data
file headers are preserved as comments in the source.spct objects.

licor.spct

## Object: reflector_spct [226 x 2]
## Wavelength range 350-800 nm, step 2 nm 
## Label: File: licor-li1800-Rfr.PRN 
## Measured on 0-05-30 13:50:00 UTC 
## Variables:
##  w.length: Wavelength [nm]
##  Rfr: Total spectral reflectance [/1] 
## --
## # A tibble: 226 × 2
##   w.length    Rfr
##      <dbl>  <dbl>
## 1      350 0.0514
## 2      352 0.0471
## 3      354 0.0532
## # ℹ 223 more rows
…
  file.name <- 
    system.file("extdata", "psi-spectrapen-SP.csv", 
                package = "photobiologyInOut", mustWork = TRUE)
  psi.mspct <- read_spectrapen_csv(file = file.name,
                                  tz = "UTC")
  summary(psi.mspct)

## Summary of source_mspct [6 x 1] object: psi.mspct
## # A tibble: 6 × 8
##   spct.idx class       dim    w.length.min w.length.max
##   <chr>    <chr>       <chr>         <dbl>        <dbl>
## 1 spct.13  source_spct [256 …         327.          793
## 2 spct.14  source_spct [256 …         327.          793
## 3 spct.15  source_spct [256 …         327.          793
## # ℹ 3 more rows
## # ℹ 3 more variables: colnames <list>,
## #   multiple.wl <dbl>, time.unit <Duration>
…
## Wavelength range 280.5-761.5 nm, step 1 nm 
## Label: TUV spectral simulation File: tuv-usrout.txt 
## Measured on 2014-03-21 12:00:00 UTC
## Measured on 2014-03-21 13:00:00 UTC
## Measured on 2014-03-21 14:00:00 UTC
## Measured on 2014-03-21 15:00:00 UTC
## Measured on 2014-03-21 16:00:00 UTC
## Measured on 2014-03-21 17:00:00 UTC
## Measured on 2014-03-21 18:00:00 UTC
## Measured on 2014-03-21 19:00:00 UTC 
## Variables:
##  w.length: Wavelength [nm]
##  s.e.irrad: Spectral energy irradiance [W m-2 nm-1] 
## --
## # A tibble: 3,856 × 5
##   w.length spct.idx s.e.irrad angle date               
##      <dbl> <chr>        <dbl> <dbl> <dttm>             
## 1     280. A         3.04e-15  1.83 2014-03-21 12:00:00
## 2     282. A         1.16e-13  1.83 2014-03-21 12:00:00
## 3     282. A         1.82e-12  1.83 2014-03-21 12:00:00
## # ℹ 3,853 more rows
…
The output is a single
source_spct} object that can be easily converted into asource_mspct}
object containing the individual spectra as members of the
collection.

tuv.mspct <- subset2mspct(tuv.spct)
summary(tuv.mspct)

## Summary of source_mspct [8 x 1] object: tuv.mspct
## # A tibble: 8 × 8
##   spct.idx class       dim    w.length.min w.length.max
##   <chr>    <chr>       <chr>         <dbl>        <dbl>
## 1 A        source_spct [482 …         280.         762.
## 2 B        source_spct [482 …         280.         762.
## 3 C        source_spct [482 …         280.         762.
## # ℹ 5 more rows
## # ℹ 3 more variables: colnames <list>,
## #   multiple.wl <dbl>, time.unit <Duration>
…
qtuv.spct

## Object: source_spct [140 x 5]
## Wavelength range 280.5-419.5 nm, step 1 nm 
## Label: Solar spectrum (model simulation). File: qtuv.txt 
## Measured on 2015-06-30 UTC 
## Variables:
##  w.length: Wavelength [nm]
##  s.e.irrad: Spectral energy irradiance [W m-2 nm-1] 
## --
## # A tibble: 140 × 5
##   w.length s.e.irrad s.e.irrad.dir s.e.irrad.diff.down
##      <dbl>     <dbl>         <dbl>               <dbl>
## 1     280.  1.34e-14      3.89e-15            9.50e-15
## 2     282.  4.33e-13      1.24e-13            3.09e-13
## 3     282.  5.86e-12      1.66e-12            4.20e-12
## # ℹ 137 more rows
## # ℹ 1 more variable: s.e.irrad.diff.up <dbl>
…
## Object: source_spct [3,055 x 5]
## containing 5 spectra in long form
## Wavelength range 290-900 nm, step 1 nm 
## Label: libRadtran spectral simulation File: uvspec-multi.dat 
## Measured on 2015-05-19 11:00:00 UTC
## Measured on 2015-05-19 11:01:00 UTC
## Measured on 2015-05-19 11:02:00 UTC
## Measured on 2015-05-19 11:03:00 UTC
## Measured on 2015-05-19 11:04:00 UTC 
## Variables:
##  w.length: Wavelength [nm]
##  s.e.irrad: Spectral energy irradiance [W m-2 nm-1] 
## --
## # A tibble: 3,055 × 5
##   datetime            w.length s.e.irrad.dir
##   <dttm>                 <dbl>         <dbl>
## 1 2015-05-19 11:00:00      290      0       
## 2 2015-05-19 11:00:00      291      0       
## 3 2015-05-19 11:00:00      292      0       
## 4 2015-05-19 11:00:00      293      1.89e-11
## 5 2015-05-19 11:00:00      294      1.65e-10
## # ℹ 3,050 more rows
## # ℹ 2 more variables: s.e.irrad.diff <dbl>,
## #   s.e.irrad <dbl>
…
when_measured(z.spct)

## [1] "2014-08-21 UTC"

z.spct

## Object: source_spct [511 x 2]
## Wavelength range 290-800 nm, step 1 nm 
## Label: File: fmi-al-2014-08-21_cum.hel 
## Measured on 2014-08-21 UTC 
## Variables:
##  w.length: Wavelength [nm]
##  s.e.irrad: Spectral energy exposure [J d-1 m-2 nm-1] 
## --
## # A tibble: 511 × 2
##   w.length s.e.irrad
##      <dbl>     <dbl>
## 1      290 0        
## 2      291 0.0000293
## 3      292 0.000724 
## # ℹ 508 more rows
…
z.mspct

## Object: source_mspct [1 x 1]
## --- Member: fmi_al_2014_08_21_cum.hel ---
## Object: source_spct [511 x 2]
## Wavelength range 290-800 nm, step 1 nm 
## Label: File: fmi-al-2014-08-21_cum.hel 
## Measured on 2014-08-21 UTC 
## Variables:
##  w.length: Wavelength [nm]
##  s.e.irrad: Spectral energy exposure [J d-1 m-2 nm-1] 
## --
## # A tibble: 511 × 2
##   w.length s.e.irrad
##      <dbl>     <dbl>
## 1      290 0        
## 2      291 0.0000293
## 3      292 0.000724 
## # ℹ 508 more rows
## 
## --- END ---
…
z2.mspct

## Object: source_mspct [1 x 1]
## --- Member: fmi_al_2014_08_21_cum.hel ---
## Object: source_spct [511 x 2]
## Wavelength range 290-800 nm, step 1 nm 
## Label: File: fmi-al-2014-08-21_cum.hel 
## Measured on 2014-08-21 UTC 
## Variables:
##  w.length: Wavelength [nm]
##  s.e.irrad: Spectral energy exposure [J d-1 m-2 nm-1] 
## --
## # A tibble: 511 × 2
##   w.length s.e.irrad
##      <dbl>     <dbl>
## 1      290 0        
## 2      291 0.0000293
## 3      292 0.000724 
## # ℹ 508 more rows
## 
## --- END ---
…
In this case as there is no metadata present in the file, it needs to
be supplied by the user.

fred.spct

## Object: reflector_spct [401 x 3]
## Wavelength range 300-700 nm, step 1 nm 
## Label: File: FReDflowerID_157.csv
## Gazania heterochaeta 
## Variables:
##  w.length: Wavelength [nm]
##  Rfr: Total spectral reflectance [/1] 
## --
## # A tibble: 401 × 3
##   flower.id w.length    Rfr
##       <dbl>    <dbl>  <dbl>
## 1       157      300 0.0627
## 2       157      301 0.0654
## 3       157      302 0.0678
## # ℹ 398 more rows
…
The label and comment are set from the file header.

aster.spct

## Object: reflector_spct [2,559 x 2]
## Wavelength range 380.49-14011 nm, step 0.8-38 nm 
## Label: Name: Dry grass
## File: aster-Rpc-drygrass.txt 
## Variables:
##  w.length: Wavelength [nm]
##  Rfr: Total spectral reflectance [/1] 
## --
## # A tibble: 2,559 × 2
##   w.length   Rfr
##      <dbl> <dbl>
## 1     380. 0.142
## 2     383. 0.143
## 3     385. 0.145
## # ℹ 2,556 more rows
…
From ‘colorSpec’

# bug that needs to be fixed
fluorescent.mspct <- colorSpec2mspct(colorSpec::Fs.5nm)
print(fluorescent.mspct, n = 3, n.members = 3)

## Object: source_mspct [12 x 1]
## --- Member: F1 ---
## Object: source_spct [81 x 2]
## Wavelength range 380-780 nm, step 5 nm 
## Variables:
##  w.length: Wavelength [nm]
##  s.e.irrad: Spectral energy irradiance [W m-2 nm-1] 
## --
## # A tibble: 81 × 2
##   w.length s.e.irrad
##      <dbl>     <dbl>
## 1      380      1.87
## 2      385      2.36
## 3      390      2.94
## # ℹ 78 more rows
## --- Member: F2 ---
## Object: source_spct [81 x 2]
## Wavelength range 380-780 nm, step 5 nm 
## Variables:
##  w.length: Wavelength [nm]
##  s.e.irrad: Spectral energy irradiance [W m-2 nm-1] 
## --
## # A tibble: 81 × 2
##   w.length s.e.irrad
##      <dbl>     <dbl>
## 1      380      1.18
## 2      385      1.48
## 3      390      1.84
## # ℹ 78 more rows
## --- Member: F3 ---
## Object: source_spct [81 x 2]
## Wavelength range 380-780 nm, step 5 nm 
## Variables:
##  w.length: Wavelength [nm]
##  s.e.irrad: Spectral energy irradiance [W m-2 nm-1] 
## --
## # A tibble: 81 × 2
##   w.length s.e.irrad
##      <dbl>     <dbl>
## 1      380      0.82
## 2      385      1.02
## 3      390      1.26
## # ℹ 78 more rows
## ..........................
## 9 other member spectra not shown
## 
## --- END ---

colorSpec2mspct(colorSpec::Hoya)

## Object: filter_mspct [4 x 1]
## --- Member: R-60 ---
## Object: filter_spct [46 x 2]
## Wavelength range 300-750 nm, step 10 nm 
## Rfr (/1): NA, thickness (mm): NA, attenuation mode: NA.
## Variables:
##  w.length: Wavelength [nm]
##  Tfr: Total spectral transmittance [/1] 
## --
## # A tibble: 46 × 2
##   w.length   Tfr
##      <dbl> <dbl>
## 1      300     0
## 2      310     0
## 3      320     0
## # ℹ 43 more rows
## --- Member: G-533 ---
## Object: filter_spct [46 x 2]
## Wavelength range 300-750 nm, step 10 nm 
## Rfr (/1): NA, thickness (mm): NA, attenuation mode: NA.
## Variables:
##  w.length: Wavelength [nm]
##  Tfr: Total spectral transmittance [/1] 
## --
## # A tibble: 46 × 2
##   w.length   Tfr
##      <dbl> <dbl>
## 1      300     0
## 2      310     0
## 3      320     0
## # ℹ 43 more rows
## --- Member: B-440 ---
## Object: filter_spct [46 x 2]
## Wavelength range 300-750 nm, step 10 nm 
## Rfr (/1): NA, thickness (mm): NA, attenuation mode: NA.
## Variables:
##  w.length: Wavelength [nm]
##  Tfr: Total spectral transmittance [/1] 
## --
## # A tibble: 46 × 2
##   w.length   Tfr
##      <dbl> <dbl>
## 1      300     0
## 2      310     0
## 3      320     0
## # ℹ 43 more rows
## --- Member: LB-120 ---
## Object: filter_spct [46 x 2]
## Wavelength range 300-750 nm, step 10 nm 
## Rfr (/1): NA, thickness (mm): NA, attenuation mode: NA.
## Variables:
##  w.length: Wavelength [nm]
##  Tfr: Total spectral transmittance [/1] 
## --
## # A tibble: 46 × 2
##   w.length     Tfr
##      <dbl>   <dbl>
## 1      300 0.00003
## 2      310 0.0058 
## 3      320 0.081  
## # ℹ 43 more rows
## 
## --- END ---
…
colorSpec2chroma_spct(colorSpec::xyz1931.5nm)

## Object: chroma_spct [81 x 4]
## Wavelength range 380-780 nm, step 5 nm 
## Variables:
##  x: Numeric colour coordinate X
##  y: Numeric colour coordinates Y
##  z: Numeric colour coordinates Z
##  w.length: Wavelength [nm] 
## --
## # A tibble: 81 × 4
##        x      y      z w.length
##    <dbl>  <dbl>  <dbl>    <dbl>
## 1 0.0014 0      0.0065      380
## 2 0.0022 0.0001 0.0105      385
## 3 0.0042 0.0001 0.0201      390
## # ℹ 78 more rows
…
Here we extract the ``crown’’ data from all individuals and plot
these spectra in a single plot.

print(sicalis.mspct[c(TRUE, FALSE, FALSE)])

## Object: reflector_mspct [7 x 1]
## --- Member: ind1.C ---
## Object: reflector_spct [401 x 2]
## Wavelength range 300-700 nm, step 1 nm 
## Variables:
##  w.length: Wavelength [nm]
##  Rfr: Total spectral reflectance [/1] 
## --
## # A tibble: 401 × 2
##   w.length     Rfr
##      <int>   <dbl>
## 1      300 0.00759
## 2      301 0.00773
## 3      302 0.00829
## # ℹ 398 more rows
## --- Member: ind2.C ---
## Object: reflector_spct [401 x 2]
## Wavelength range 300-700 nm, step 1 nm 
## Variables:
##  w.length: Wavelength [nm]
##  Rfr: Total spectral reflectance [/1] 
## --
## # A tibble: 401 × 2
##   w.length     Rfr
##      <int>   <dbl>
## 1      300 0.00297
## 2      301 0.00233
## 3      302 0.00323
## # ℹ 398 more rows
## --- Member: ind3.C ---
## Object: reflector_spct [401 x 2]
## Wavelength range 300-700 nm, step 1 nm 
## Variables:
##  w.length: Wavelength [nm]
##  Rfr: Total spectral reflectance [/1] 
## --
## # A tibble: 401 × 2
##   w.length      Rfr
##      <int>    <dbl>
## 1      300 0.000595
## 2      301 0       
## 3      302 0.00119 
## # ℹ 398 more rows
## --- Member: ind4.C ---
## Object: reflector_spct [401 x 2]
## Wavelength range 300-700 nm, step 1 nm 
## Variables:
##  w.length: Wavelength [nm]
##  Rfr: Total spectral reflectance [/1] 
## --
## # A tibble: 401 × 2
##   w.length     Rfr
##      <int>   <dbl>
## 1      300 0.00375
## 2      301 0.00347
## 3      302 0.00413
## # ℹ 398 more rows
## --- Member: ind5.C ---
## Object: reflector_spct [401 x 2]
## Wavelength range 300-700 nm, step 1 nm 
## Variables:
##  w.length: Wavelength [nm]
##  Rfr: Total spectral reflectance [/1] 
## --
## # A tibble: 401 × 2
##   w.length     Rfr
##      <int>   <dbl>
## 1      300 0.00423
## 2      301 0.00536
## 3      302 0.00655
## # ℹ 398 more rows
## --- Member: ind6.C ---
## Object: reflector_spct [401 x 2]
## Wavelength range 300-700 nm, step 1 nm 
## Variables:
##  w.length: Wavelength [nm]
##  Rfr: Total spectral reflectance [/1] 
## --
## # A tibble: 401 × 2
##   w.length      Rfr
##      <int>    <dbl>
## 1      300 0.000633
## 2      301 0.000614
## 3      302 0.000193
## # ℹ 398 more rows
## --- Member: ind7.C ---
## Object: reflector_spct [401 x 2]
## Wavelength range 300-700 nm, step 1 nm 
## Variables:
##  w.length: Wavelength [nm]
##  Rfr: Total spectral reflectance [/1] 
## --
## # A tibble: 401 × 2
##   w.length     Rfr
##      <int>   <dbl>
## 1      300 0.00168
## 2      301 0.00104
## 3      302 0.00170
## # ℹ 398 more rows
## 
## --- END ---
…
jaz00.spct

## Object: source_spct [2,048 x 2]
## Wavelength range 188.82523-1033.1483 nm, step 0.357056-0.459625 nm 
## Label: File: oo-spectrum-comma.jazIrrad 
## Measured on 2015-02-03 07:44:41 UTC 
## Variables:
##  w.length: Wavelength [nm]
##  s.e.irrad: Spectral energy irradiance [W m-2 nm-1] 
## --
## # A tibble: 2,048 × 2
##   w.length s.e.irrad
##      <dbl>     <dbl>
## 1     189.         0
## 2     189.         0
## 3     190.         0
## # ℹ 2,045 more rows
…
my.geocode <- data.frame(lon = 25.02006, lat = 60.22525)
jaz04.spct <- read_oo_jazirrad(file = jaz.s.irrad.file,
                               geocode = my.geocode)
jaz04.spct

## Object: source_spct [2,048 x 2]
## Wavelength range 188.82523-1033.1483 nm, step 0.357056-0.459625 nm 
## Label: File: oo-spectrum.jazIrrad 
## Measured on 2015-02-03 09:44:41 UTC 
## Variables:
##  w.length: Wavelength [nm]
##  s.e.irrad: Spectral energy irradiance [W m-2 nm-1] 
## --
## # A tibble: 2,048 × 2
##   w.length s.e.irrad
##      <dbl>     <dbl>
## 1     189.         0
## 2     189.         0
## 3     190.         0
## # ℹ 2,045 more rows
…
